{
  "version": "7.48",
  "log_list_timestamp": "2022-04-22T12:54:23Z",
  "operators": [
    {
      "name": "Google",
      "email": ["google-ct-logs@googlegroups.com"],
      "logs": [
        {
          "description": "Google 'Argon2022' log",
          "log_id": "KXm+8J45OSHwVnOfY6V35b5XfZxgCvj5TV0mXCVdx4Q=",
          "key": "MFkwEwYHKoZIzj0CAQYIKoZIzj0DAQcDQgAEeIPc6fGmuBg6AJkv/z7NFckmHvf/OqmjchZJ6wm2qN200keRDg352dWpi7CHnSV51BpQYAj1CQY5JuRAwrrDwg==",
          "url": "https://ct.googleapis.com/logs/argon2022/",
          "mmd": 86400,
          "state": {
            "usable": {
              "timestamp": "2019-12-17T18:38:01Z"
            }
          },
          "temporal_interval": {
            "start_inclusive": "2022-01-01T00:00:00Z",
            "end_exclusive": "2023-01-01T00:00:00Z"
          }
        },
        {
          "description": "Google 'Argon2023' log",
          "log_id": "6D7Q2j71BjUy51covIlryQPTy9ERa+zraeF3fW0GvW4=",
          "key": "MFkwEwYHKoZIzj0CAQYIKoZIzj0DAQcDQgAE0JCPZFJOQqyEti5M8j13ALN3CAVHqkVM4yyOcKWCu2yye5yYeqDpEXYoALIgtM3TmHtNlifmt+4iatGwLpF3eA==",
          "url": "https://ct.googleapis.com/logs/argon2023/",
          "mmd": 86400,
          "state": {
            "usable": {
              "timestamp": "2019-12-17T18:38:01Z"
            }
          },
          "temporal_interval": {
            "start_inclusive": "2023-01-01T00:00:00Z",
            "end_exclusive": "2024-01-01T00:00:00Z"
          }
        },
        {
          "description": "Google 'Xenon2022' log",
          "log_id": "RqVV63X6kSAwtaKJafTzfREsQXS+/Um4havy/HD+bUc=",
          "key": "MFkwEwYHKoZIzj0CAQYIKoZIzj0DAQcDQgAE+WS9FSxAYlCVEzg8xyGwOrmPonoV14nWjjETAIdZvLvukPzIWBMKv6tDNlQjpIHNrUcUt1igRPpqoKDXw2MeKw==",
          "url": "https://ct.googleapis.com/logs/xenon2022/",
          "mmd": 86400,
          "state": {
            "usable": {
              "timestamp": "2019-06-17T21:23:01Z"
            }
          },
          "temporal_interval": {
            "start_inclusive": "2022-01-01T00:00:00Z",
            "end_exclusive": "2023-01-01T00:00:00Z"
          }
        },
        {
          "description": "Google 'Xenon2023' log",
          "log_id": "rfe++nz/EMiLnT2cHj4YarRnKV3PsQwkyoWGNOvcgoo=",
          "key": "MFkwEwYHKoZIzj0CAQYIKoZIzj0DAQcDQgAEchY+C+/vzj5g3ZXLY3q5qY1Kb2zcYYCmRV4vg6yU84WI0KV00HuO/8XuQqLwLZPjwtCymeLhQunSxgAnaXSuzg==",
          "url": "https://ct.googleapis.com/logs/xenon2023/",
          "mmd": 86400,
          "state": {
            "usable": {
              "timestamp": "2019-12-17T18:38:01Z"
            }
          },
          "temporal_interval": {
            "start_inclusive": "2023-01-01T00:00:00Z",
            "end_exclusive": "2024-01-01T00:00:00Z"
          }
        },
        {
          "description": "Google 'Aviator' log",
          "log_id": "aPaY+B9kgr46jO65KB1M/HFRXWeT1ETRCmesu09P+8Q=",
          "key": "MFkwEwYHKoZIzj0CAQYIKoZIzj0DAQcDQgAE1/TMabLkDpCjiupacAlP7xNi0I1JYP8bQFAHDG1xhtolSY1l4QgNRzRrvSe8liE+NPWHdjGxfx3JhTsN9x8/6Q==",
          "url": "https://ct.googleapis.com/aviator/",
          "mmd": 86400,
          "state": {
            "readonly": {
              "timestamp": "2016-11-30T13:24:18Z",
              "final_tree_head": {
                "sha256_root_hash": "LcGcZRsm+LGYmrlyC5LXhV1T6OD8iH5dNlb0sEJl9bA=",
                "tree_size": 46466472
              }
            }
          }
        },
        {
          "description": "Google 'Icarus' log",
          "log_id": "KTxRllTIOWW6qlD8WAfUt2+/WHopctykwwz05UVH9Hg=",
          "key": "MFkwEwYHKoZIzj0CAQYIKoZIzj0DAQcDQgAETtK8v7MICve56qTHHDhhBOuV4IlUaESxZryCfk9QbG9co/CqPvTsgPDbCpp6oFtyAHwlDhnvr7JijXRD9Cb2FA==",
          "url": "https://ct.googleapis.com/icarus/",
          "mmd": 86400,
          "state": {
            "usable": {
              "timestamp": "2017-03-06T19:35:01Z"
            }
          }
        },
        {
          "description": "Google 'Pilot' log",
          "log_id": "pLkJkLQYWBSHuxOizGdwCjw1mAT5G9+443fNDsgN3BA=",
          "key": "MFkwEwYHKoZIzj0CAQYIKoZIzj0DAQcDQgAEfahLEimAoz2t01p3uMziiLOl/fHTDM0YDOhBRuiBARsV4UvxG2LdNgoIGLrtCzWE0J5APC2em4JlvR8EEEFMoA==",
          "url": "https://ct.googleapis.com/pilot/",
          "mmd": 86400,
          "state": {
            "usable": {
              "timestamp": "2014-09-02T20:41:44Z"
            }
          }
        },
        {
          "description": "Google 'Rocketeer' log",
          "log_id": "7ku9t3XOYLrhQmkfq+GeZqMPfl+wctiDAMR7iXqo/cs=",
          "key": "MFkwEwYHKoZIzj0CAQYIKoZIzj0DAQcDQgAEIFsYyDzBi7MxCAC/oJBXK7dHjG+1aLCOkHjpoHPqTyghLpzA9BYbqvnV16mAw04vUjyYASVGJCUoI3ctBcJAeg==",
          "url": "https://ct.googleapis.com/rocketeer/",
          "mmd": 86400,
          "state": {
            "usable": {
              "timestamp": "2015-08-04T19:00:05Z"
            }
          }
        },
        {
          "description": "Google 'Skydiver' log",
          "log_id": "u9nfvB+KcbWTlCOXqpJ7RzhXlQqrUugakJZkNo4e0YU=",
          "key": "MFkwEwYHKoZIzj0CAQYIKoZIzj0DAQcDQgAEEmyGDvYXsRJsNyXSrYc9DjHsIa2xzb4UR7ZxVoV6mrc9iZB7xjI6+NrOiwH+P/xxkRmOFG6Jel20q37hTh58rA==",
          "url": "https://ct.googleapis.com/skydiver/",
          "mmd": 86400,
          "state": {
            "usable": {
              "timestamp": "2017-03-06T19:35:01Z"
            }
          }
        }
      ]
    },
    {
      "name": "Cloudflare",
      "email": ["ct-logs@cloudflare.com", "brendan@cloudflare.com", "nick@cloudflare.com", "pat@cloudflare.com", "zi@cloudflare.com", "ivan@cloudflare.com"],
      "logs": [
        {
          "description": "Cloudflare 'Nimbus2022' Log",
          "log_id": "QcjKsd8iRkoQxqE6CUKHXk4xixsD6+tLx2jwkGKWBvY=",
          "key": "MFkwEwYHKoZIzj0CAQYIKoZIzj0DAQcDQgAESLJHTlAycmJKDQxIv60pZG8g33lSYxYpCi5gteI6HLevWbFVCdtZx+m9b+0LrwWWl/87mkNN6xE0M4rnrIPA/w==",
          "url": "https://ct.cloudflare.com/logs/nimbus2022/",
          "mmd": 86400,
          "state": {
            "usable": {
              "timestamp": "2019-10-31T19:22:00Z"
            }
          },
          "temporal_interval": {
            "start_inclusive": "2022-01-01T00:00:00Z",
            "end_exclusive": "2023-01-01T00:00:00Z"
          }
        },
        {
          "description": "Cloudflare 'Nimbus2023' Log",
          "log_id": "ejKMVNi3LbYg6jjgUh7phBZwMhOFTTvSK8E6V6NS61I=",
          "key": "MFkwEwYHKoZIzj0CAQYIKoZIzj0DAQcDQgAEi/8tkhjLRp0SXrlZdTzNkTd6HqmcmXiDJz3fAdWLgOhjmv4mohvRhwXul9bgW0ODgRwC9UGAgH/vpGHPvIS1qA==",
          "url": "https://ct.cloudflare.com/logs/nimbus2023/",
          "mmd": 86400,
          "state": {
            "usable": {
              "timestamp": "2019-10-31T19:22:00Z"
            }
          },
          "temporal_interval": {
            "start_inclusive": "2023-01-01T00:00:00Z",
            "end_exclusive": "2024-01-01T00:00:00Z"
          }
        }
      ]
    },
    {
      "name": "DigiCert",
      "email": ["ctops@digicert.com"],
      "logs": [
        {
          "description": "DigiCert Log Server",
          "log_id": "VhQGmi/XwuzT9eG9RLI+x0Z2ubyZEVzA75SYVdaJ0N0=",
          "key": "MFkwEwYHKoZIzj0CAQYIKoZIzj0DAQcDQgAEAkbFvhu7gkAW6MHSrBlpE1n4+HCFRkC5OLAjgqhkTH+/uzSfSl8ois8ZxAD2NgaTZe1M9akhYlrYkes4JECs6A==",
          "url": "https://ct1.digicert-ct.com/log/",
          "mmd": 86400,
          "state": {
            "retired": {
              "timestamp": "2022-01-24T00:00:00Z"
            }
          }
        },
        {
          "description": "DigiCert Log Server 2",
          "log_id": "h3W/51l8+IxDmV+9827/Vo1HVjb/SrVgwbTq/16ggw8=",
          "key": "MFkwEwYHKoZIzj0CAQYIKoZIzj0DAQcDQgAEzF05L2a4TH/BLgOhNKPoioYCrkoRxvcmajeb8Dj4XQmNY+gxa4Zmz3mzJTwe33i0qMVp+rfwgnliQ/bM/oFmhA==",
          "url": "https://ct2.digicert-ct.com/log/",
          "mmd": 86400,
          "state": {
            "retired": {
              "timestamp": "2020-05-04T00:00:40Z"
            }
          }
        },
        {
          "description": "DigiCert Yeti2022 Log",
          "log_id": "IkVFB1lVJFaWP6Ev8fdthuAjJmOtwEt/XcaDXG7iDwI=",
          "key": "MFkwEwYHKoZIzj0CAQYIKoZIzj0DAQcDQgAEn/jYHd77W1G1+131td5mEbCdX/1v/KiYW5hPLcOROvv+xA8Nw2BDjB7y+RGyutD2vKXStp/5XIeiffzUfdYTJg==",
          "url": "https://yeti2022.ct.digicert.com/log/",
          "mmd": 86400,
          "state": {
            "retired": {
              "timestamp": "2021-07-21T00:00:00Z"
            }
          },
          "temporal_interval": {
            "start_inclusive": "2022-01-01T00:00:00Z",
            "end_exclusive": "2023-01-01T00:00:00Z"
          }
        },
        {
          "description": "DigiCert Yeti2023 Log",
          "log_id": "Nc8ZG7+xbFe/D61MbULLu7YnICZR6j/hKu+oA8M71kw=",
          "key": "MFkwEwYHKoZIzj0CAQYIKoZIzj0DAQcDQgAEfQ0DsdWYitzwFTvG3F4Nbj8Nv5XIVYzQpkyWsU4nuSYlmcwrAp6m092fsdXEw6w1BAeHlzaqrSgNfyvZaJ9y0Q==",
          "url": "https://yeti2023.ct.digicert.com/log/",
          "mmd": 86400,
          "state": {
            "usable": {
              "timestamp": "2019-10-31T19:22:00Z"
            }
          },
          "temporal_interval": {
            "start_inclusive": "2023-01-01T00:00:00Z",
            "end_exclusive": "2024-01-01T00:00:00Z"
          }
        },
        {
          "description": "DigiCert Nessie2022 Log",
          "log_id": "UaOw9f0BeZxWbbg3eI8MpHrMGyfL956IQpoN/tSLBeU=",
          "key": "MFkwEwYHKoZIzj0CAQYIKoZIzj0DAQcDQgAEJyTdaAMoy/5jvg4RR019F2ihEV1McclBKMe2okuX7MCv/C87v+nxsfz1Af+p+0lADGMkmNd5LqZVqxbGvlHYcQ==",
          "url": "https://nessie2022.ct.digicert.com/log/",
          "mmd": 86400,
          "state": {
            "usable": {
              "timestamp": "2019-05-09T22:11:02Z"
            }
          },
          "temporal_interval": {
            "start_inclusive": "2022-01-01T00:00:00Z",
            "end_exclusive": "2023-01-01T00:00:00Z"
          }
        },
        {
          "description": "DigiCert Nessie2023 Log",
          "log_id": "s3N3B+GEUPhjhtYFqdwRCUp5LbFnDAuH3PADDnk2pZo=",
          "key": "MFkwEwYHKoZIzj0CAQYIKoZIzj0DAQcDQgAEEXu8iQwSCRSf2CbITGpUpBtFVt8+I0IU0d1C36Lfe1+fbwdaI0Z5FktfM2fBoI1bXBd18k2ggKGYGgdZBgLKTg==",
          "url": "https://nessie2023.ct.digicert.com/log/",
          "mmd": 86400,
          "state": {
            "usable": {
              "timestamp": "2019-10-31T19:22:00Z"
            }
          },
          "temporal_interval": {
            "start_inclusive": "2023-01-01T00:00:00Z",
            "end_exclusive": "2024-01-01T00:00:00Z"
          }
        },
        {
          "description": "Symantec log",
          "log_id": "3esdK3oNT6Ygi4GtgWhwfi6OnQHVXIiNPRHEzbbsvsw=",
          "key": "MFkwEwYHKoZIzj0CAQYIKoZIzj0DAQcDQgAEluqsHEYMG1XcDfy1lCdGV0JwOmkY4r87xNuroPS2bMBTP01CEDPwWJePa75y9CrsHEKqAy8afig1dpkIPSEUhg==",
          "url": "https://ct.ws.symantec.com/",
          "mmd": 86400,
          "state": {
            "retired": {
              "timestamp": "2019-02-16T00:00:00Z"
            }
          }
        },
        {
          "description": "Symantec 'Vega' log",
          "log_id": "vHjh38X2PGhGSTNNoQ+hXwl5aSAJwIG08/aRfz7ZuKU=",
          "key": "MFkwEwYHKoZIzj0CAQYIKoZIzj0DAQcDQgAE6pWeAv/u8TNtS4e8zf0ZF2L/lNPQWQc/Ai0ckP7IRzA78d0NuBEMXR2G3avTK0Zm+25ltzv9WWis36b4ztIYTQ==",
          "url": "https://vega.ws.symantec.com/",
          "mmd": 86400,
          "state": {
            "retired": {
              "timestamp": "2019-02-16T00:00:00Z"
            }
          }
        },
        {
          "description": "Symantec 'Sirius' log",
          "log_id": "FZcEiNe5l6Bb61JRKt7o0ui0oxZSZBIan6v71fha2T8=",
          "key": "MFkwEwYHKoZIzj0CAQYIKoZIzj0DAQcDQgAEowJkhCK7JewN47zCyYl93UXQ7uYVhY/Z5xcbE4Dq7bKFN61qxdglnfr0tPNuFiglN+qjN2Syxwv9UeXBBfQOtQ==",
          "url": "https://sirius.ws.symantec.com/",
          "mmd": 86400,
          "state": {
            "retired": {
              "timestamp": "2019-02-16T00:00:00Z"
            }
          }
        },
        {
          "description": "DigiCert Yeti2022-2 Log",
          "log_id": "BZwB0yDgB4QTlYBJjRF8kDJmr69yULWvO0akPhGEDUo=",
          "key": "MFkwEwYHKoZIzj0CAQYIKoZIzj0DAQcDQgAEHWlePwrycXfNnV3DNEkA7mB34XJ2dKh8XH0J8jIdBX4u/lsx1Tr9czRuSRROUFiWWsTH9L4FZKT31+WxbTMMww==",
          "url": "https://yeti2022-2.ct.digicert.com/log/",
          "mmd": 86400,
          "state": {
            "qualified": {
              "timestamp": "2022-03-11T00:00:00Z"
            }
          },
          "temporal_interval": {
            "start_inclusive": "2022-01-01T00:00:00Z",
            "end_exclusive": "2023-01-01T00:00:00Z"
          }
        }
      ]
    },
    {
      "name": "Certly",
      "email": ["ian@certly.io"],
      "logs": [
        {
          "description": "Certly.IO log",
          "log_id": "zbUXm3/BwEb+6jETaj+PAC5hgvr4iW/syLL1tatgSQA=",
          "key": "MFkwEwYHKoZIzj0CAQYIKoZIzj0DAQcDQgAECyPLhWKYYUgEc+tUXfPQB4wtGS2MNvXrjwFCCnyYJifBtd2Sk7Cu+Js9DNhMTh35FftHaHu6ZrclnNBKwmbbSA==",
          "url": "https://log.certly.io/",
          "mmd": 86400,
          "state": {
            "retired": {
              "timestamp": "2016-04-15T00:00:00Z"
            }
          }
        }
      ]
    },
    {
      "name": "Izenpe",
      "email": ["atecnica@izenpe.net"],
      "logs": [
        {
          "description": "Izenpe log",
          "log_id": "dGG0oJz7PUHXUVlXWy52SaRFqNJ3CbDMVkpkgrfrQaM=",
          "key": "MFkwEwYHKoZIzj0CAQYIKoZIzj0DAQcDQgAEJ2Q5DC3cUBj4IQCiDu0s6j51up+TZAkAEcQRF6tczw90rLWXkJMAW7jr9yc92bIKgV8vDXU4lDeZHvYHduDuvg==",
          "url": "https://ct.izenpe.com/",
          "mmd": 86400,
          "state": {
            "retired": {
              "timestamp": "2016-05-30T00:00:00Z"
            }
          }
        }
      ]
    },
    {
      "name": "WoSign",
      "email": ["ctlog@wosign.com"],
      "logs": [
        {
          "description": "WoSign log",
          "log_id": "QbLcLonmPOSvG6e7Kb9oxt7m+fHMBH4w3/rjs7olkmM=",
          "key": "MFkwEwYHKoZIzj0CAQYIKoZIzj0DAQcDQgAEzBGIey1my66PTTBmJxklIpMhRrQvAdPG+SvVyLpzmwai8IoCnNBrRhgwhbrpJIsO0VtwKAx+8TpFf1rzgkJgMQ==",
          "url": "https://ctlog.wosign.com/",
          "mmd": 86400,
          "state": {
            "retired": {
              "timestamp": "2018-02-12T23:59:59Z"
            }
          }
        }
      ]
    },
    {
      "name": "Venafi",
      "email": ["ctlog-admin@venafi.com"],
      "logs": [
        {
          "description": "Venafi log",
          "log_id": "rDua7X+pZ0dXFZ5tfVdWcvnZgQCUHpve/+yhMTt1eC0=",
          "key": "MIIBIjANBgkqhkiG9w0BAQEFAAOCAQ8AMIIBCgKCAQEAolpIHxdSlTXLo1s6H1OCdpSj/4DyHDc8wLG9wVmLqy1lk9fz4ATVmm+/1iN2Nk8jmctUKK2MFUtlWXZBSpym97M7frGlSaQXUWyA3CqQUEuIJOmlEjKTBEiQAvpfDjCHjlV2Be4qTM6jamkJbiWtgnYPhJL6ONaGTiSPm7Byy57iaz/hbckldSOIoRhYBiMzeNoA0DiRZ9KmfSeXZ1rB8y8X5urSW+iBzf2SaOfzBvDpcoTuAaWx2DPazoOl28fP1hZ+kHUYvxbcMjttjauCFx+JII0dmuZNIwjfeG/GBb9frpSX219k1O4Wi6OEbHEr8at/XQ0y7gTikOxBn/s5wQIDAQAB",
          "url": "https://ctlog.api.venafi.com/",
          "mmd": 86400,
          "state": {
            "retired": {
              "timestamp": "2017-02-28T18:42:26Z"
            }
          }
        }
      ]
    },
    {
      "name": "CNNIC",
      "email": ["ctlog-admin@cnnic.cn"],
      "logs": [
        {
          "description": "CNNIC CT log",
          "log_id": "pXesnO11SN2PAltnokEInfhuD0duwgPC7L7bGF8oJjg=",
          "key": "MIIBIjANBgkqhkiG9w0BAQEFAAOCAQ8AMIIBCgKCAQEAv7UIYZopMgTTJWPp2IXhhuAf1l6a9zM7gBvntj5fLaFm9pVKhKYhVnno94XuXeN8EsDgiSIJIj66FpUGvai5samyetZhLocRuXhAiXXbDNyQ4KR51tVebtEq2zT0mT9liTtGwiksFQccyUsaVPhsHq9gJ2IKZdWauVA2Fm5x9h8B9xKn/L/2IaMpkIYtd967TNTP/dLPgixN1PLCLaypvurDGSVDsuWabA3FHKWL9z8wr7kBkbdpEhLlg2H+NAC+9nGKx+tQkuhZ/hWR65aX+CNUPy2OB9/u2rNPyDydb988LENXoUcMkQT0dU3aiYGkFAY0uZjD2vH97TM20xYtNQIDAQAB",
          "url": "https://ctserver.cnnic.cn/",
          "mmd": 86400,
          "state": {
            "retired": {
              "timestamp": "2018-09-18T00:00:00Z"
            }
          }
        }
      ]
    },
    {
      "name": "StartCom",
      "email": ["ct@startssl.com"],
      "logs": [
        {
          "description": "StartCom log",
          "log_id": "NLtq1sPfnAPuqKSZ/3iRSGydXlysktAfe/0bzhnbSO8=",
          "key": "MFkwEwYHKoZIzj0CAQYIKoZIzj0DAQcDQgAESPNZ8/YFGNPbsu1Gfs/IEbVXsajWTOaft0oaFIZDqUiwy1o/PErK38SCFFWa+PeOQFXc9NKv6nV0+05/YIYuUQ==",
          "url": "https://ct.startssl.com/",
          "mmd": 86400,
          "state": {
            "retired": {
              "timestamp": "2018-02-12T23:59:59Z"
            }
          }
        }
      ]
    },
    {
      "name": "Sectigo",
      "email": ["ctops@sectigo.com"],
      "logs": [
        {
          "description": "Sectigo 'Sabre' CT log",
          "log_id": "VYHUwhaQNgFK6gubVzxT8MDkOHhwJQgXL6OqHQcT0ww=",
          "key": "MFkwEwYHKoZIzj0CAQYIKoZIzj0DAQcDQgAE8m/SiQ8/xfiHHqtls9m7FyOMBg4JVZY9CgiixXGz0akvKD6DEL8S0ERmFe9U4ZiA0M4kbT5nmuk3I85Sk4bagA==",
          "url": "https://sabre.ct.comodo.com/",
          "mmd": 86400,
          "state": {
            "usable": {
              "timestamp": "2017-10-10T00:38:10Z"
            }
          }
        },
        {
          "description": "Sectigo 'Mammoth' CT log",
          "log_id": "b1N2rDHwMRnYmQCkURX/dxUcEdkCwQApBo2yCJo32RM=",
          "key": "MFkwEwYHKoZIzj0CAQYIKoZIzj0DAQcDQgAE7+R9dC4VFbbpuyOL+yy14ceAmEf7QGlo/EmtYU6DRzwat43f/3swtLr/L8ugFOOt1YU/RFmMjGCL17ixv66MZw==",
          "url": "https://mammoth.ct.comodo.com/",
          "mmd": 86400,
          "state": {
            "usable": {
              "timestamp": "2017-10-10T00:38:10Z"
            }
          }
        }
      ]
    },
    {
      "name": "Let's Encrypt",
      "email": ["sre@letsencrypt.org"],
      "logs": [
        {
          "description": "Let's Encrypt 'Oak2022' log",
          "log_id": "36Veq2iCTx9sre64X04+WurNohKkal6OOxLAIERcKnM=",
          "key": "MFkwEwYHKoZIzj0CAQYIKoZIzj0DAQcDQgAEhjyxDVIjWt5u9sB/o2S8rcGJ2pdZTGA8+IpXhI/tvKBjElGE5r3de4yAfeOPhqTqqc+o7vPgXnDgu/a9/B+RLg==",
          "url": "https://oak.ct.letsencrypt.org/2022/",
          "mmd": 86400,
          "state": {
            "usable": {
              "timestamp": "2020-01-27T18:18:26Z"
            }
          },
          "temporal_interval": {
            "start_inclusive": "2022-01-01T00:00:00Z",
            "end_exclusive": "2023-01-07T00:00:00Z"
          }
        },
        {
          "description": "Let's Encrypt 'Oak2023' log",
          "log_id": "tz77JN+cTbp18jnFulj0bF38Qs96nzXEnh0JgSXttJk=",
          "key": "MFkwEwYHKoZIzj0CAQYIKoZIzj0DAQcDQgAEsz0OeL7jrVxEXJu+o4QWQYLKyokXHiPOOKVUL3/TNFFquVzDSer7kZ3gijxzBp98ZTgRgMSaWgCmZ8OD74mFUQ==",
          "url": "https://oak.ct.letsencrypt.org/2023/",
          "mmd": 86400,
          "state": {
            "usable": {
              "timestamp": "2021-03-01T19:24:00Z"
            }
          },
          "temporal_interval": {
            "start_inclusive": "2023-01-01T00:00:00Z",
            "end_exclusive": "2024-01-07T00:00:00Z"
          }
        }
      ]
    },
    {
      "name": "TrustAsia",
      "email": ["trustasia-ct-logs@trustasia.com"],
      "logs": [
        {
          "description": "Trust Asia Log2022",
          "log_id": "w2X5s2VPMoPHnamOk9dBj1ure+MlLJjh0vBLuetCfSM=",
          "key": "MFkwEwYHKoZIzj0CAQYIKoZIzj0DAQcDQgAEu1LyFs+SC8555lRtwjdTpPX5OqmzBewdvRbsMKwu+HliNRWOGtgWLuRIa/bGE/GWLlwQ/hkeqBi4Dy3DpIZRlw==",
          "url": "https://ct.trustasia.com/log2022/",
          "mmd": 86400,
          "state": {
            "usable": {
              "timestamp": "2021-03-01T19:24:00Z"
            }
          },
          "temporal_interval": {
            "start_inclusive": "2022-01-01T00:00:00Z",
            "end_exclusive": "2023-01-01T00:00:00Z"
          }
        },
        {
          "description": "Trust Asia Log2023",
          "log_id": "6H6nZgvCbPYALvVyXT/g4zG5OTu5L79Y6zuQSdr1Q1o=",
          "key": "MFkwEwYHKoZIzj0CAQYIKoZIzj0DAQcDQgAEpBFS2xdBTpDUVlESMFL4mwPPTJ/4Lji18Vq6+ji50o8agdqVzDPsIShmxlY+YDYhINnUrF36XBmhBX3+ICP89Q==",
          "url": "https://ct.trustasia.com/log2023/",
          "mmd": 86400,
          "state": {
            "usable": {
              "timestamp": "2021-03-01T19:24:00Z"
            }
          },
          "temporal_interval": {
            "start_inclusive": "2023-01-01T00:00:00Z",
            "end_exclusive": "2024-01-01T00:00:00Z"
          }
        }
      ]
    }
  ]
}
